Introduction to ggplot2
…
line graphs

multiple lines can be drawn, by specifiying a catagorical column, and a method to distinguish separate lines

data("economics_long")
economics_long

## # A tibble: 2,870 x 4
##    date       variable value  value01
##    <date>     <chr>    <dbl>    <dbl>
##  1 1967-07-01 pce       507. 0       
##  2 1967-08-01 pce       510. 0.000265
##  3 1967-09-01 pce       516. 0.000762
##  4 1967-10-01 pce       512. 0.000471
##  5 1967-11-01 pce       517. 0.000916
##  6 1967-12-01 pce       525. 0.00157 
##  7 1968-01-01 pce       531. 0.00207 
##  8 1968-02-01 pce       534. 0.00230 
##  9 1968-03-01 pce       544. 0.00322 
## 10 1968-04-01 pce       544  0.00319 
## #  with 2,860 more rows
…
