Manipulating data
…
the tibble

tibble is a play on the word “table”

the is the tidyverses reimplimentation of a data frame

the key differences are that tibbles dont have rownames, and that tibbles always maintain strings as characters

the tibble

tibbles are also a little easier to print out

tibble(iris)

## # A tibble: 150 x 5
##    Sepal.Length Sepal.Width Petal.Length Petal.Width Species
##           <dbl>       <dbl>        <dbl>       <dbl> <fct>  
##  1          5.1         3.5          1.4         0.2 setosa 
##  2          4.9         3            1.4         0.2 setosa 
##  3          4.7         3.2          1.3         0.2 setosa 
##  4          4.6         3.1          1.5         0.2 setosa 
##  5          5           3.6          1.4         0.2 setosa 
##  6          5.4         3.9          1.7         0.4 setosa 
##  7          4.6         3.4          1.4         0.3 setosa 
##  8          5           3.4          1.5         0.2 setosa 
##  9          4.4         2.9          1.4         0.2 setosa 
## 10          4.9         3.1          1.5         0.1 setosa 
## #  with 140 more rows
…
“dplyr stands for”data plier“, and is a package centered around manipulating tabular data. It provides efficient”verbs" to subset data, change it , and filter it.

There are a large number of useful functions that are within the package, but were going to focus on a core few.

None of the dplyr functions modify data in-place, so always must store the output in a new variable if you want to use the result again

select

select - subset dataframes based on column names; select always returns a data frame regardless of columns

data(mpg)
mpg

## # A tibble: 234 x 11
##    manufacturer model    displ  year   cyl trans   drv     cty   hwy fl    class
##    <chr>        <chr>    <dbl> <int> <int> <chr>   <chr> <int> <int> <chr> <chr>
##  1 audi         a4         1.8  1999     4 auto(l f        18    29 p     comp
##  2 audi         a4         1.8  1999     4 manual f        21    29 p     comp
##  3 audi         a4         2    2008     4 manual f        20    31 p     comp
##  4 audi         a4         2    2008     4 auto(a f        21    30 p     comp
##  5 audi         a4         2.8  1999     6 auto(l f        16    26 p     comp
##  6 audi         a4         2.8  1999     6 manual f        18    26 p     comp
##  7 audi         a4         3.1  2008     6 auto(a f        18    27 p     comp
##  8 audi         a4 quat   1.8  1999     4 manual 4        18    26 p     comp
##  9 audi         a4 quat   1.8  1999     4 auto(l 4        16    25 p     comp
## 10 audi         a4 quat   2    2008     4 manual 4        20    28 p     comp
## #  with 224 more rows

select

select(mpg, model)

## # A tibble: 234 x 1
##    model     
##    <chr>     
##  1 a4        
##  2 a4        
##  3 a4        
##  4 a4        
##  5 a4        
##  6 a4        
##  7 a4        
##  8 a4 quattro
##  9 a4 quattro
## 10 a4 quattro
## #  with 224 more rows

select

note that i did not use quotes for the model column; like ggplot, dplyr support quasi-quotation, so column names can be used with out quoting them

you can select multiple columns, either by specifying a specific column, or a range

select(mpg, model, class)

## # A tibble: 234 x 2
##    model      class  
##    <chr>      <chr>  
##  1 a4         compact
##  2 a4         compact
##  3 a4         compact
##  4 a4         compact
##  5 a4         compact
##  6 a4         compact
##  7 a4         compact
##  8 a4 quattro compact
##  9 a4 quattro compact
## 10 a4 quattro compact
## #  with 224 more rows

select

select(mpg, displ:trans)

## # A tibble: 234 x 4
##    displ  year   cyl trans     
##    <dbl> <int> <int> <chr>     
##  1   1.8  1999     4 auto(l5)  
##  2   1.8  1999     4 manual(m5)
##  3   2    2008     4 manual(m6)
##  4   2    2008     4 auto(av)  
##  5   2.8  1999     6 auto(l5)  
##  6   2.8  1999     6 manual(m5)
##  7   3.1  2008     6 auto(av)  
##  8   1.8  1999     4 manual(m5)
##  9   1.8  1999     4 auto(l5)  
## 10   2    2008     4 manual(m6)
## #  with 224 more rows

select

select can also be used to drop columns

select(mpg, -manufacturer, -class)

## # A tibble: 234 x 9
##    model      displ  year   cyl trans      drv     cty   hwy fl   
##    <chr>      <dbl> <int> <int> <chr>      <chr> <int> <int> <chr>
##  1 a4           1.8  1999     4 auto(l5)   f        18    29 p    
##  2 a4           1.8  1999     4 manual(m5) f        21    29 p    
##  3 a4           2    2008     4 manual(m6) f        20    31 p    
##  4 a4           2    2008     4 auto(av)   f        21    30 p    
##  5 a4           2.8  1999     6 auto(l5)   f        16    26 p    
##  6 a4           2.8  1999     6 manual(m5) f        18    26 p    
##  7 a4           3.1  2008     6 auto(av)   f        18    27 p    
##  8 a4 quattro   1.8  1999     4 manual(m5) 4        18    26 p    
##  9 a4 quattro   1.8  1999     4 auto(l5)   4        16    25 p    
## 10 a4 quattro   2    2008     4 manual(m6) 4        20    28 p    
## #  with 224 more rows

the filter function

filter allows you to find data that match certain conditions, by using logical filtering

data("airquality")
airquality <- tibble(airquality)
airquality

## # A tibble: 153 x 6
##    Ozone Solar.R  Wind  Temp Month   Day
##    <int>   <int> <dbl> <int> <int> <int>
##  1    41     190   7.4    67     5     1
##  2    36     118   8      72     5     2
##  3    12     149  12.6    74     5     3
##  4    18     313  11.5    62     5     4
##  5    NA      NA  14.3    56     5     5
##  6    28      NA  14.9    66     5     6
##  7    23     299   8.6    65     5     7
##  8    19      99  13.8    59     5     8
##  9     8      19  20.1    61     5     9
## 10    NA     194   8.6    69     5    10
## #  with 143 more rows

the filter function

df <-  filter(airquality, Month == 5)
df

## # A tibble: 31 x 6
##    Ozone Solar.R  Wind  Temp Month   Day
##    <int>   <int> <dbl> <int> <int> <int>
##  1    41     190   7.4    67     5     1
##  2    36     118   8      72     5     2
##  3    12     149  12.6    74     5     3
##  4    18     313  11.5    62     5     4
##  5    NA      NA  14.3    56     5     5
##  6    28      NA  14.9    66     5     6
##  7    23     299   8.6    65     5     7
##  8    19      99  13.8    59     5     8
##  9     8      19  20.1    61     5     9
## 10    NA     194   8.6    69     5    10
## #  with 21 more rows

the filter function

multiple logical filters can be passed

df <- filter(airquality, Month == 5, Wind  > 10)
df

## # A tibble: 18 x 6
##    Ozone Solar.R  Wind  Temp Month   Day
##    <int>   <int> <dbl> <int> <int> <int>
##  1    12     149  12.6    74     5     3
##  2    18     313  11.5    62     5     4
##  3    NA      NA  14.3    56     5     5
##  4    28      NA  14.9    66     5     6
##  5    19      99  13.8    59     5     8
##  6     8      19  20.1    61     5     9
##  7    14     274  10.9    68     5    14
##  8    18      65  13.2    58     5    15
##  9    14     334  11.5    64     5    16
## 10    34     307  12      66     5    17
## #  with 8 more rows

the filter function

functions returning a logical vector can also be used

df <- filter(airquality, !is.na(Solar.R))
df

## # A tibble: 146 x 6
##    Ozone Solar.R  Wind  Temp Month   Day
##    <int>   <int> <dbl> <int> <int> <int>
##  1    41     190   7.4    67     5     1
##  2    36     118   8      72     5     2
##  3    12     149  12.6    74     5     3
##  4    18     313  11.5    62     5     4
##  5    23     299   8.6    65     5     7
##  6    19      99  13.8    59     5     8
##  7     8      19  20.1    61     5     9
##  8    NA     194   8.6    69     5    10
##  9    16     256   9.7    69     5    12
## 10    11     290   9.2    66     5    13
## #  with 136 more rows

the mutate function

the mutate function lets you add columns to the data, or change existing ones

mutate(airquality, Ozone = -1)

## # A tibble: 153 x 6
##    Ozone Solar.R  Wind  Temp Month   Day
##    <dbl>   <int> <dbl> <int> <int> <int>
##  1    -1     190   7.4    67     5     1
##  2    -1     118   8      72     5     2
##  3    -1     149  12.6    74     5     3
##  4    -1     313  11.5    62     5     4
##  5    -1      NA  14.3    56     5     5
##  6    -1      NA  14.9    66     5     6
##  7    -1     299   8.6    65     5     7
##  8    -1      99  13.8    59     5     8
##  9    -1      19  20.1    61     5     9
## 10    -1     194   8.6    69     5    10
## #  with 143 more rows

the mutate function

df <- mutate(airquality, temp_zone = ifelse(Temp > 75, 'HIGH', 'LOW')) 
as_tibble(df)

## # A tibble: 153 x 7
##    Ozone Solar.R  Wind  Temp Month   Day temp_zone
##    <int>   <int> <dbl> <int> <int> <int> <chr>    
##  1    41     190   7.4    67     5     1 LOW      
##  2    36     118   8      72     5     2 LOW      
##  3    12     149  12.6    74     5     3 LOW      
##  4    18     313  11.5    62     5     4 LOW      
##  5    NA      NA  14.3    56     5     5 LOW      
##  6    28      NA  14.9    66     5     6 LOW      
##  7    23     299   8.6    65     5     7 LOW      
##  8    19      99  13.8    59     5     8 LOW      
##  9     8      19  20.1    61     5     9 LOW      
## 10    NA     194   8.6    69     5    10 LOW      
## #  with 143 more rows

the arrange function

this function lets you sort data

iris <- as_tibble(iris)
arrange(iris, Sepal.Width)

## # A tibble: 150 x 5
##    Sepal.Length Sepal.Width Petal.Length Petal.Width Species   
##           <dbl>       <dbl>        <dbl>       <dbl> <fct>     
##  1          5           2            3.5         1   versicolor
##  2          6           2.2          4           1   versicolor
##  3          6.2         2.2          4.5         1.5 versicolor
##  4          6           2.2          5           1.5 virginica 
##  5          4.5         2.3          1.3         0.3 setosa    
##  6          5.5         2.3          4           1.3 versicolor
##  7          6.3         2.3          4.4         1.3 versicolor
##  8          5           2.3          3.3         1   versicolor
##  9          4.9         2.4          3.3         1   versicolor
## 10          5.5         2.4          3.8         1.1 versicolor
## #  with 140 more rows

the arrange function

note that this sorts is in ascending order. for descending order, wrap the column name in the desc function

arrange(iris, desc(Sepal.Width))

## # A tibble: 150 x 5
##    Sepal.Length Sepal.Width Petal.Length Petal.Width Species
##           <dbl>       <dbl>        <dbl>       <dbl> <fct>  
##  1          5.7         4.4          1.5         0.4 setosa 
##  2          5.5         4.2          1.4         0.2 setosa 
##  3          5.2         4.1          1.5         0.1 setosa 
##  4          5.8         4            1.2         0.2 setosa 
##  5          5.4         3.9          1.7         0.4 setosa 
##  6          5.4         3.9          1.3         0.4 setosa 
##  7          5.7         3.8          1.7         0.3 setosa 
##  8          5.1         3.8          1.5         0.3 setosa 
##  9          5.1         3.8          1.9         0.4 setosa 
## 10          5.1         3.8          1.6         0.2 setosa 
## #  with 140 more rows
…
dplyr functions as “verbs”

Its best to think of each of these functions as an action or “verb” that we perform on the.

For example within the airquality data: " In my data I want to keep only the rows correspond to the months 5, or 6, keep only the temp and species column, and change the month column so that we use the character names for the month instead of the numeric names"

dplyr functions as “verbs”

df <- filter(airquality, Month %in% c(5, 6))
df <- select(df, Month, Temp)
df <- mutate(df, Month = ifelse(Month == 5, 'May', 'June'))
df

## # A tibble: 61 x 2
##    Month  Temp
##    <chr> <int>
##  1 May      67
##  2 May      72
##  3 May      74
##  4 May      62
##  5 May      56
##  6 May      66
##  7 May      65
##  8 May      59
##  9 May      61
## 10 May      69
## #  with 51 more rows
…
Looking at this code, we can see that we are performing repeated actions on the same data, where the output of one function is the input for the next function.

dplyr provides a method for chaining multiple functions together, automatically redirecting the output of one function into an other function, through something called a pipe: %>%

using pipes

df <- filter(airquality, Month %in% c(5, 6)) %>% 
    select( Month, Temp) %>%
    mutate( Month = ifelse(Month == 5, 'May', 'June'))
df

## # A tibble: 61 x 2
##    Month  Temp
##    <chr> <int>
##  1 May      67
##  2 May      72
##  3 May      74
##  4 May      62
##  5 May      56
##  6 May      66
##  7 May      65
##  8 May      59
##  9 May      61
## 10 May      69
## #  with 51 more rows
…
iris %>% pull(Sepal.Width) %>% .[1]

## [1] 3.5

lets do some practice

wide vs long data

two common ways for formatting data are “wide” and “long”

data("economics")
economics

## # A tibble: 574 x 6
##    date         pce    pop psavert uempmed unemploy
##    <date>     <dbl>  <dbl>   <dbl>   <dbl>    <dbl>
##  1 1967-07-01  507. 198712    12.6     4.5     2944
##  2 1967-08-01  510. 198911    12.6     4.7     2945
##  3 1967-09-01  516. 199113    11.9     4.6     2958
##  4 1967-10-01  512. 199311    12.9     4.9     3143
##  5 1967-11-01  517. 199498    12.8     4.7     3066
##  6 1967-12-01  525. 199657    11.8     4.8     3018
##  7 1968-01-01  531. 199808    11.7     5.1     2878
##  8 1968-02-01  534. 199920    12.3     4.5     3001
##  9 1968-03-01  544. 200056    11.7     4.1     2877
## 10 1968-04-01  544  200208    12.3     4.6     2709
## #  with 564 more rows
…
wide vs long data

this is the same data, but in “long format”. Here, each row is a distinct measurement; note that the date column is repeated multiple times for different variable.

the reason long format is preferred is that it reduces the number of columns in a data set, making it longer instead.

remember that each column is a vector under the hood; computationally its more efficient to perform the same operation over a single large vector, rather than a series of smaller vectors/columns

converting from wide to long

the tidyr package has a useful function called pivot_longer that allows you to convert from wide to long

economics %>% as_tibble

## # A tibble: 574 x 6
##    date         pce    pop psavert uempmed unemploy
##    <date>     <dbl>  <dbl>   <dbl>   <dbl>    <dbl>
##  1 1967-07-01  507. 198712    12.6     4.5     2944
##  2 1967-08-01  510. 198911    12.6     4.7     2945
##  3 1967-09-01  516. 199113    11.9     4.6     2958
##  4 1967-10-01  512. 199311    12.9     4.9     3143
##  5 1967-11-01  517. 199498    12.8     4.7     3066
##  6 1967-12-01  525. 199657    11.8     4.8     3018
##  7 1968-01-01  531. 199808    11.7     5.1     2878
##  8 1968-02-01  534. 199920    12.3     4.5     3001
##  9 1968-03-01  544. 200056    11.7     4.1     2877
## 10 1968-04-01  544  200208    12.3     4.6     2709
## #  with 564 more rows

converting from wide to long

economics %>% 
    pivot_longer(cols = c(pop, pce, psavert, uempmed, unemploy),
                 names_to = 'variable', 
                 values_to = 'obs') %>% as_tibble

## # A tibble: 2,870 x 3
##    date       variable      obs
##    <date>     <chr>       <dbl>
##  1 1967-07-01 pop      198712  
##  2 1967-07-01 pce         507. 
##  3 1967-07-01 psavert      12.6
##  4 1967-07-01 uempmed       4.5
##  5 1967-07-01 unemploy   2944  
##  6 1967-08-01 pop      198911  
##  7 1967-08-01 pce         510. 
##  8 1967-08-01 psavert      12.6
##  9 1967-08-01 uempmed       4.7
## 10 1967-08-01 unemploy   2945  
## #  with 2,860 more rows

converting from wide to long

same thing a different way

#every column except the data column
economics %>% pivot_longer(cols = -date,  
                           names_to = 'variable', 
                           values_to = 'obs') %>% as_tibble

## # A tibble: 2,870 x 3
##    date       variable      obs
##    <date>     <chr>       <dbl>
##  1 1967-07-01 pce         507. 
##  2 1967-07-01 pop      198712  
##  3 1967-07-01 psavert      12.6
##  4 1967-07-01 uempmed       4.5
##  5 1967-07-01 unemploy   2944  
##  6 1967-08-01 pce         510. 
##  7 1967-08-01 pop      198911  
##  8 1967-08-01 psavert      12.6
##  9 1967-08-01 uempmed       4.7
## 10 1967-08-01 unemploy   2945  
## #  with 2,860 more rows

grouping and summarizing data

we often want to generate summary statistics for subcharacterics/subpopulations of our data

for example, calculating the the average value by day in economics_long data. we do this by using the group_by and summarise functions from dplyr

economics_long %>% arrange(date) %>% as_tibble

## # A tibble: 2,870 x 4
##    date       variable    value  value01
##    <date>     <chr>       <dbl>    <dbl>
##  1 1967-07-01 pce         507.  0       
##  2 1967-07-01 pop      198712   0       
##  3 1967-07-01 psavert      12.6 0.689   
##  4 1967-07-01 uempmed       4.5 0.0236  
##  5 1967-07-01 unemploy   2944   0.0204  
##  6 1967-08-01 pce         510.  0.000265
##  7 1967-08-01 pop      198911   0.00164 
##  8 1967-08-01 psavert      12.6 0.689   
##  9 1967-08-01 uempmed       4.7 0.0330  
## 10 1967-08-01 unemploy   2945   0.0205  
## #  with 2,860 more rows

grouping and summarizing data

economics_long %>% 
    group_by(date) %>% 
    summarise(avg_value_per_day = mean(value))

## `summarise()` ungrouping output (override with `.groups` argument)

## # A tibble: 574 x 2
##    date       avg_value_per_day
##    <date>                 <dbl>
##  1 1967-07-01            40436.
##  2 1967-08-01            40477.
##  3 1967-09-01            40521.
##  4 1967-10-01            40597.
##  5 1967-11-01            40620.
##  6 1967-12-01            40643.
##  7 1968-01-01            40647.
##  8 1968-02-01            40694.
##  9 1968-03-01            40699.
## 10 1968-04-01            40696.
## #  with 564 more rows
…
iris_small <- iris[1:5, 1:3]
colnames(iris_small) <- c('a', 'b', 'c')
dim(iris_small)

## [1] 5 3

dim(iris)

## [1] 150   5

merging tabular data

bind_rows(iris, iris_small)

## # A tibble: 155 x 8
##    Sepal.Length Sepal.Width Petal.Length Petal.Width Species     a     b     c
##           <dbl>       <dbl>        <dbl>       <dbl> <fct>   <dbl> <dbl> <dbl>
##  1          5.1         3.5          1.4         0.2 setosa     NA    NA    NA
##  2          4.9         3            1.4         0.2 setosa     NA    NA    NA
##  3          4.7         3.2          1.3         0.2 setosa     NA    NA    NA
##  4          4.6         3.1          1.5         0.2 setosa     NA    NA    NA
##  5          5           3.6          1.4         0.2 setosa     NA    NA    NA
##  6          5.4         3.9          1.7         0.4 setosa     NA    NA    NA
##  7          4.6         3.4          1.4         0.3 setosa     NA    NA    NA
##  8          5           3.4          1.5         0.2 setosa     NA    NA    NA
##  9          4.4         2.9          1.4         0.2 setosa     NA    NA    NA
## 10          4.9         3.1          1.5         0.1 setosa     NA    NA    NA
## #  with 145 more rows
…
